public void agregar(Vehiculo v) throws SQLException, ClassNotFoundException{
        
        try{
            Connection conexion = Conexion.obtener();
            PreparedStatement consulta;
            consulta = conexion.prepareStatement("INSERT INTO `x`(`x`, `x`, `x`) VALUES (?,?,?)");
           
            consulta.setString(1,"");
            
            consulta.executeUpdate(); 
            
            System.out.println("agregado con exito");
            
        }catch(SQLException e){
            throw new SQLException(e);
        }
        
    }
    
    public void delete(Connection conexion)throws SQLException{
        
        try{
            PreparedStatement consulta;
            consulta = conexion.prepareStatement("DELETE from registro");
            
            consulta.executeUpdate();

            System.out.println("se ha limpiado la base de datos");
            JOptionPane.showMessageDialog(null, "Se ha limpiado la base de datos");
        }catch(SQLException e){
            throw new SQLException(e);
        }
    }

Consulta:
Connection conn = Conexion.obtener();
ResultSet rs = conn.createStatement();
Statement st = st.executeQuery("");

String data="";
while(rs.next()){
                    data += rs.getString("x") +"\n";
                }